0	1.007571986	
0.2	1.095465744	
0.4	1.22384952	
0.6	1.205013423	
0.8	1.518262627	
1	1.530284017	
1.2	1.697623299	
1.4	1.721653936	
1.6	1.73418839	
1.8	2.002475959	
2	1.880252516	
2.2	2.204285698	
2.4	2.211536047	
2.6	2.181957031	
2.8	2.473167745	
3	2.385014409	
3.2	2.470475676	
3.4	2.825876668	
3.6	2.891686259	
3.8	2.790552979	
4	3.128138478	
4.2	3.100532442	
4.4	3.255192893	
4.6	3.256588762	
4.8	3.378863699	
5	3.498846697	