0	0.025190018
0.2	0.030396929
0.4	0.038195792
0.6	0.041425194
0.8	0.062623365
1	0.070046537
1.2	0.091514655
1.4	0.103599216
1.6	0.115939003
1.8	0.167561724
2	0.163878998
2.2	0.250425513
2.4	0.278776914
2.6	0.299116418
2.8	0.442324409
3	0.447595639
3.2	0.538803802
3.4	0.849588822
3.6	1.002810747
3.8	1.001674926
4	1.551557125
4.2	1.668046177
4.4	2.151818801
4.6	2.381449434
4.8	2.974227212
5	3.70605231